…
    ## See spec(...) for full column specifications.

    ## # A tibble: 204 x 26
    ##      `3` `?`   `alfa-romero` gas   std   two   convertible rwd   front `88.60`
    ##    <dbl> <chr> <chr>         <chr> <chr> <chr> <chr>       <chr> <chr>   <dbl>
    ##  1     3 ?     alfa-romero   gas   std   two   convertible rwd   front    88.6
    ##  2     1 ?     alfa-romero   gas   std   two   hatchback   rwd   front    94.5
    ##  3     2 164   audi          gas   std   four  sedan       fwd   front    99.8
    ##  4     2 164   audi          gas   std   four  sedan       4wd   front    99.4
    ##  5     2 ?     audi          gas   std   two   sedan       fwd   front    99.8
    ##  6     1 158   audi          gas   std   four  sedan       fwd   front   106. 
    ##  7     1 ?     audi          gas   std   four  wagon       fwd   front   106. 
    ##  8     1 158   audi          gas   turbo four  sedan       fwd   front   106. 
    ##  9     0 ?     audi          gas   turbo two   hatchback   4wd   front    99.5
    ## 10     2 192   bmw           gas   std   two   sedan       rwd   front   101. 
    ## # … with 194 more rows, and 16 more variables: `168.80` <dbl>, `64.10` <dbl>,
    ## #   `48.80` <dbl>, `2548` <dbl>, dohc <chr>, four <chr>, `130` <dbl>,
    ## #   mpfi <chr>, `3.47` <chr>, `2.68` <chr>, `9.00` <dbl>, `111` <chr>,
    ## #   `5000` <chr>, `21` <dbl>, `27` <dbl>, `13495` <chr>
…
