…
``` r
# manipulation step-by-step
dat1 <- group_by(dat, team)
dat2 <- select(dat1, team, height, weight)
dat3 <- summarise(dat2,
  avg_height = mean(height, na.rm = TRUE),
  avg_weight = mean(weight, na.rm = TRUE))
dat4 <- arrange(dat3, avg_height)
dat4
```

    ## # A tibble: 30 x 3
    ##    team  avg_height avg_weight
    ##    <chr>      <dbl>      <dbl>
    ##  1 BOS         78.2       220.
    ##  2 HOU         78.3       215.
    ##  3 SAC         78.5       217.
    ##  4 IND         78.5       226.
    ##  5 CHI         78.5       216.
    ##  6 PHO         78.5       214.
    ##  7 BRK         78.7       222.
    ##  8 CHO         78.8       213.
    ##  9 LAC         78.8       225.
    ## 10 CLE         78.9       226.
    ## # … with 20 more rows
…
# inside-out style (hard to read)
arrange(
  summarise(
    select(
      group_by(dat, team),
      team, height, weight
    ),
    avg_height = mean(height, na.rm = TRUE),
    avg_weight = mean(weight, na.rm = TRUE)    
  ),
  avg_height
)
```

    ## # A tibble: 30 x 3
    ##    team  avg_height avg_weight
    ##    <chr>      <dbl>      <dbl>
    ##  1 BOS         78.2       220.
    ##  2 HOU         78.3       215.
    ##  3 SAC         78.5       217.
    ##  4 IND         78.5       226.
    ##  5 CHI         78.5       216.
    ##  6 PHO         78.5       214.
    ##  7 BRK         78.7       222.
    ##  8 CHO         78.8       213.
    ##  9 LAC         78.8       225.
    ## 10 CLE         78.9       226.
    ## # … with 20 more rows
…
x %\>% f(y) turns into f(x, y) so you can use it to rewrite multiple
operations that you can read left-to-right, top-to-bottom:

``` r
# using %>%
dat %>% 
  group_by(team) %>%
  select(team, height, weight) %>%
  summarise(
    avg_height = mean(height, na.rm = TRUE),
    avg_weight = mean(weight, na.rm = TRUE)) %>%
  arrange(avg_height)
```

    ## # A tibble: 30 x 3
    ##    team  avg_height avg_weight
    ##    <chr>      <dbl>      <dbl>
    ##  1 BOS         78.2       220.
    ##  2 HOU         78.3       215.
    ##  3 SAC         78.5       217.
    ##  4 IND         78.5       226.
    ##  5 CHI         78.5       216.
    ##  6 PHO         78.5       214.
    ##  7 BRK         78.7       222.
    ##  8 CHO         78.8       213.
    ##  9 LAC         78.8       225.
    ## 10 CLE         78.9       226.
    ## # … with 20 more rows
…
