…
  - find how to select the name, age, and team, of players with more
    than 10 years of experience, making 10 million dollars or less.

<!-- end list -->

``` r
dat %>%
  filter(experience > 10 & salary < 10000000) %>%
  select(player, age, team)
```

    ## # A tibble: 32 x 3
    ##    player              age team 
    ##    <chr>             <dbl> <chr>
    ##  1 Dahntay Jones        36 CLE  
    ##  2 Deron Williams       32 CLE  
    ##  3 James Jones          36 CLE  
    ##  4 Kyle Korver          35 CLE  
    ##  5 Richard Jefferson    36 CLE  
    ##  6 Jose Calderon        35 ATL  
    ##  7 Kris Humphries       31 ATL  
    ##  8 Mike Dunleavy        36 ATL  
    ##  9 Jason Terry          39 MIL  
    ## 10 C.J. Miles           29 IND  
    ## # … with 22 more rows
…
Let’s see the combination of summarise() and group\_by() to calculate
the average salary by team:

``` r
# average salary, grouped by team
summarise(
  group_by(dat, team),
  avg_salary = mean(salary)
)
```

    ## # A tibble: 30 x 2
    ##    team  avg_salary
    ##    <chr>      <dbl>
    ##  1 ATL     6491892.
    ##  2 BOS     6127673.
    ##  3 BRK     4363414 
    ##  4 CHI     6138459.
    ##  5 CHO     6683086.
    ##  6 CLE     8386014.
    ##  7 DAL     6139880 
    ##  8 DEN     5225533 
    ##  9 DET     6871594.
    ## 10 GSW     6579394.
    ## # … with 20 more rows
…
  - use summarise() and group\_by() to display the median of
    three-points, by team.

<!-- end list -->

``` r
summarise(
  group_by(dat, team),
  median_points3 = median(points3)
)
```

    ## # A tibble: 30 x 2
    ##    team  median_points3
    ##    <chr>          <dbl>
    ##  1 ATL             32.5
    ##  2 BOS             46  
    ##  3 BRK             44  
    ##  4 CHI             32  
    ##  5 CHO             17  
    ##  6 CLE             62  
    ##  7 DAL             53  
    ##  8 DEN             53  
    ##  9 DET             28  
    ## 10 GSW             18  
    ## # … with 20 more rows
…
