…
## 6.1 | Dplyr Table

``` r
shots_data %>%
  group_by(shot_distance)%>%
  select(shot_distance, shot_made_flag) %>%
  summarise(
    total_shots = n(),
    made_shots = sum(shot_made_flag == "made_shot")) %>%
  mutate(made_shot_prop = made_shots / total_shots) %>%
  select(shot_distance, made_shot_prop)
```

    ## # A tibble: 56 x 2
    ##    shot_distance made_shot_prop
    ##            <int>          <dbl>
    ##  1             0          0.841
    ##  2             1          0.668
    ##  3             2          0.534
    ##  4             3          0.373
    ##  5             4          0.411
    ##  6             5          0.286
    ##  7             6          0.396
    ##  8             7          0.395
    ##  9             8          0.463
    ## 10             9          0.321
    ## # … with 46 more rows
…
# Total number of shots by minutes of occurrence

``` r
shots_in_minute <- shots_data %>%
  group_by(name, minute) %>%
  summarise(number_shots = n())
```

    ## `summarise()` has grouped output by 'name'. You can override using the `.groups` argument.

``` r
shots_in_minute
```

    ## # A tibble: 233 x 3
    ## # Groups:   name [5]
    ##    name           minute number_shots
    ##    <chr>           <int>        <int>
    ##  1 Andre Iguodala      4            1
    ##  2 Andre Iguodala      5            1
    ##  3 Andre Iguodala      6            1
    ##  4 Andre Iguodala      7            7
    ##  5 Andre Iguodala      8           10
    ##  6 Andre Iguodala      9           11
    ##  7 Andre Iguodala     10           17
    ##  8 Andre Iguodala     11           10
    ##  9 Andre Iguodala     12           23
    ## 10 Andre Iguodala     13           10
    ## # … with 223 more rows
…
